<?xml version="1.0" encoding="UTF-8"?>
<root_elem>
    <array>
        <item value="1"/>
        <item value="2"/>
        <item value="3"/>
        <item value="false"/>
        <item value="true"/>
        <item value="null"/>
        <item value="false"/>
    </array>
</root_elem>