<?xml version="1.0" encoding="UTF-8"?>
<array>
    <item>1</item>
    <item>2</item>
    <item>3</item>
    <item value="false"/>
    <item value="true"/>
    <item value="null"/>
    <item>false</item>
</array>