<?xml version="1.0" encoding="UTF-8"?>
<array>
    <item>1</item>
    <item>2</item>
    <item>3</item>
    <item>
        <false/>
    </item>
    <item>
        <true/>
    </item>
    <item>
        <null/>
    </item>
    <item>false</item>
</array>