<?xml version="1.0" encoding="UTF-8"?>
<array>
    <item>1</item>
    <item>2</item>
    <item value="3"/>
    <item value="false"/>
    <item value="true"/>
    <item value="null"/>
    <item value="false"/>
</array>