<?xml version="1.0" encoding="UTF-8"?>
<root_elem>
    <name>
        <array>
            <item value="0"/>
            <item value="0"/>
            <item value="false"/>
            <item value="true"/>
            <item value="null"/>
        </array>
    </name>
</root_elem>