<?xml version="1.0" encoding="UTF-8"?>
<name>
    <array>
        <item value="0"/>
        <item>0</item>
        <item value="false"/>
        <item value="true"/>
        <item>null</item>
    </array>
</name>