<?xml version="1.0" encoding="UTF-8"?>
<name value="-30"/>
<sur-name value="29"/>
<a>
    <array>
        <item value="10"/>
        <item value="5"/>
        <item value="7"/>
        <item value="8"/>
        <item value="-8"/>
        <item value="912"/>
        <item value="18"/>
    </array>
</a>