<?xml version="1.0" encoding="UTF-8"?>
<name value="Lukas"/>
<da-a>
    <array size="0"/>
</da-a>
<arrayy>
    <array size="5">
        <item value="0"/>
        <item value="2"/>
        <item value="false"/>
        <item value="null"/>
        <item value="true"/>
    </array>
</arrayy>
<xxx>
    <asdf-- value="<>*><*"/>
</xxx>