<?xml version="1.0" encoding="UTF-8"?>
<name value="Lukas"/>
<da-a>
    <array/>
</da-a>
<arrayy>
    <array>
        <item index="1" value="0"/>
        <item index="2" value="2"/>
        <item index="3" value="false"/>
        <item index="4" value="null"/>
        <item index="5" value="true"/>
    </array>
</arrayy>
<xxx>
    <asdf-- value="<>*><*"/>
</xxx>