<?xml version="1.0" encoding="UTF-8"?>
<array>
    <item value="1"/>
    <item value="2"/>
    <item value="3"/>
    <item value="4"/>
    <item value="aaavvv"/>
    <item>
        <array>
            <item value="5"/>
            <item value="6"/>
            <item value="7"/>
            <item value="8"/>
        </array>
    </item>
</array>